\beamer@endinputifotherversion {3.33pt}
\beamer@sectionintoc {1}{Introduction}{2}{0}{1}
\beamer@sectionintoc {2}{Model}{5}{0}{2}
\beamer@sectionintoc {3}{Method}{7}{0}{3}
\beamer@sectionintoc {4}{Simulation}{10}{0}{4}
\beamer@sectionintoc {5}{Doubts \& Problems}{17}{0}{5}
