\relax 
\catcode `"\active 
\select@language{brazilian}
\@writefile{toc}{\select@language{brazilian}}
\@writefile{lof}{\select@language{brazilian}}
\@writefile{lot}{\select@language{brazilian}}
\citation{moreau1944}
\citation{martin1996,martin2014,ricklefs2000b}
\citation{martin1996}
\citation{martin1996,martin2014,tarwater2011}
\citation{crowl1990,reznick1990,reznick1996}
\citation{martin2004,ricklefs2010,williams1997}
\citation{blake2013,faaborg1995,karr1990,wolfe2014}
\citation{botkin1974,holmes2009,nussey2013,ricklefs2000a}
\citation{ricklefs2000a}
\citation{brawn1999,ghalambor2001}
\citation{martin1996,russell2000,tarwater2011}
\citation{berkeley2007,robinson2004}
\citation{russell2000,tarwater2010}
\citation{russell2000}
\citation{karr1976}
\@writefile{toc}{\contentsline {section}{\numberline {1}Introdu\IeC {\c c}\IeC {\~a}o}{2}}
\@writefile{toc}{\contentsline {section}{\numberline {2}Objetivos}{3}}
\@writefile{toc}{\contentsline {subsection}{\numberline {2.1}Objetivo Geral}{3}}
\@writefile{toc}{\contentsline {subsection}{\numberline {2.2}Objetivos Espec\IeC {\'\i }ficos}{3}}
\@writefile{toc}{\contentsline {section}{\numberline {3}Materiais e M\IeC {\'e}todos}{3}}
\@writefile{toc}{\contentsline {subsection}{\numberline {3.1}\IeC {\'A}rea de Estudo}{3}}
\citation{wolfe2010}
\citation{colchero2012}
\citation{colchero2012}
\citation{colchero2012basta}
\bibstyle{authordate4}
\bibdata{projectv1.bib}
\bibcite{berkeley2007}{{1}{2007}{{Berkeley {\em  et~al.}}}{{}}}
\@writefile{toc}{\contentsline {subsection}{\numberline {3.2}Desenho Amostral}{4}}
\@writefile{toc}{\contentsline {subsection}{\numberline {3.3}An\IeC {\'a}lise de dados}{4}}
\bibcite{blake2013}{{2}{2013}{{Blake \& Loiselle}}{{}}}
\bibcite{botkin1974}{{3}{1974}{{Botkin \& Miller}}{{}}}
\bibcite{brawn1999}{{4}{1999}{{Brawn {\em  et~al.}}}{{}}}
\bibcite{colchero2012}{{5}{2012}{{Colchero \& Clark}}{{}}}
\bibcite{colchero2012basta}{{6}{2012}{{Colchero {\em  et~al.}}}{{}}}
\bibcite{crowl1990}{{7}{1990}{{Crowl \& Covich}}{{}}}
\bibcite{faaborg1995}{{8}{1995}{{Faaborg \& Arendt}}{{}}}
\bibcite{ghalambor2001}{{9}{2001}{{Ghalambor \& Martin}}{{}}}
\bibcite{holmes2009}{{10}{2009}{{Holmes \& Martin}}{{}}}
\bibcite{karr1976}{{11}{1976}{{Karr}}{{}}}
\bibcite{karr1990}{{12}{1990}{{Karr {\em  et~al.}}}{{}}}
\bibcite{martin1996}{{13}{1996}{{Martin}}{{}}}
\bibcite{martin2004}{{14}{2004}{{Martin}}{{}}}
\bibcite{martin2014}{{15}{2014}{{Martin}}{{}}}
\bibcite{moreau1944}{{16}{1944}{{Moreau}}{{}}}
\bibcite{nussey2013}{{17}{2013}{{Nussey {\em  et~al.}}}{{}}}
\bibcite{reznick1990}{{18}{1990}{{Reznick {\em  et~al.}}}{{}}}
\bibcite{reznick1996}{{19}{1996}{{Reznick {\em  et~al.}}}{{}}}
\bibcite{ricklefs2000a}{{20}{2000a}{{Ricklefs}}{{}}}
\bibcite{ricklefs2000b}{{21}{2000b}{{Ricklefs}}{{}}}
\bibcite{ricklefs2010}{{22}{2010}{{Ricklefs}}{{}}}
\bibcite{robinson2004}{{23}{2004}{{Robinson {\em  et~al.}}}{{}}}
\bibcite{russell2000}{{24}{2000}{{Russell}}{{}}}
\bibcite{tarwater2010}{{25}{2010}{{Tarwater \& Brawn}}{{}}}
\bibcite{tarwater2011}{{26}{2011}{{Tarwater {\em  et~al.}}}{{}}}
\bibcite{williams1997}{{27}{1997}{{Williams \& Burt}}{{}}}
\bibcite{wolfe2010}{{28}{2010}{{Wolfe {\em  et~al.}}}{{}}}
\bibcite{wolfe2014}{{29}{2014}{{Wolfe {\em  et~al.}}}{{}}}
