\select@language {brazilian}
\contentsline {section}{\numberline {1}Introdu\IeC {\c c}\IeC {\~a}o}{2}
\contentsline {section}{\numberline {2}Objetivos}{3}
\contentsline {subsection}{\numberline {2.1}Objetivo Geral}{3}
\contentsline {subsection}{\numberline {2.2}Objetivos Espec\IeC {\'\i }ficos}{3}
\contentsline {section}{\numberline {3}Materiais e M\IeC {\'e}todos}{3}
\contentsline {subsection}{\numberline {3.1}\IeC {\'A}rea de Estudo}{3}
\contentsline {subsection}{\numberline {3.2}Desenho Amostral}{4}
\contentsline {subsection}{\numberline {3.3}An\IeC {\'a}lise de dados}{4}
